void() W_FireAxe =
{
	local   vector  source;
	local   vector  org;

	makevectors (self.v_angle);
	source = self.origin + '0 0 16';
	traceline (source, source + v_forward*64, FALSE, self);
	if (trace_fraction == 1.0)
		return;
	
	org = trace_endpos - v_forward*4;

	if (trace_ent.takedamage)
	{
		trace_ent.axhitme = 1;
		SpawnBlood (org, 20);
		T_Damage (trace_ent, self, self, 20);
	}
	else
	{       // hit wall
		sound (self, CHAN_WEAPON, "player/axhit2.wav", 1, ATTN_NORM);

		WriteByte (MSG_MULTICAST, SVC_TEMPENTITY);
		WriteByte (MSG_MULTICAST, TE_GUNSHOT);
		WriteByte (MSG_MULTICAST, 3);
		WriteCoord (MSG_MULTICAST, org_x);
		WriteCoord (MSG_MULTICAST, org_y);
		WriteCoord (MSG_MULTICAST, org_z);
		multicast (org, MULTICAST_PVS);
	}
};